…
food %>% 
  filter( str_detect(menu, "Presidential")) 

## # A tibble: 1 x 4
##   date       cafe                          time   menu                
##   <date>     <chr>                         <chr>  <chr>               
## 1 2018-10-05 "Heritage Commons at Landon " Dinner Presidential Chicken

We can also filter to look at the menu for today only.

food %>% 
  filter(date == today())

## # A tibble: 288 x 4
##    date       cafe                 time  menu                              
##    <date>     <chr>                <chr> <chr>                             
##  1 2018-10-05 "The Vista at Shaw " Lunch Chicken Pasta Primavera           
##  2 2018-10-05 "The Vista at Shaw " Lunch Corn Muffin                       
##  3 2018-10-05 "The Vista at Shaw " Lunch "Cuban Black Bean and Pork Chili "
##  4 2018-10-05 "The Vista at Shaw " Lunch Chocolate Chip Cookie             
##  5 2018-10-05 "The Vista at Shaw " Lunch Double Chocolate Chip Cookie      
##  6 2018-10-05 "The Vista at Shaw " Lunch M&M Cookie                        
##  7 2018-10-05 "The Vista at Shaw " Lunch Snickerdoodle Cookie              
##  8 2018-10-05 "The Vista at Shaw " Lunch Eggplant Lentil Chili             
##  9 2018-10-05 "The Vista at Shaw " Lunch Fruit Bowl                        
## 10 2018-10-05 "The Vista at Shaw " Lunch Smokey BBQ Tofu Sandwich          
## # ... with 278 more rows
…
