Analyzing Sleep Data with R | Sean Nguyen
…
         what_day = ifelse(grepl("Sat|Sun", day_of_week),"Weekend","Weekday") %>%
                                   as.factor(),
         sleep_hour = ymd_hms(Start) %>% hour(),
         sleep_min = ymd_hms(Start) %>% minute()/60,
         sleep_time = sleep_hour + sleep_min,
         time_hr = period_to_seconds(hms(time_in_bed))/3600,
         date = ymd_hms(Start), 
         day = day(date), 
         month = month(date), 
         year = year(date)) %>% 
  select(year, month, day, day_of_week,what_day,sleep_time, Start:time_in_bed, time_hr,steps) %>% 
  mutate_at(vars(year:day),as.factor)
df

## # A tibble: 1,270 x 12
##    year  month day   day_of_week what_day sleep_time Start              
##    <fct> <fct> <fct> <ord>       <fct>         <dbl> <dttm>             
##  1 2014  9     28    Sun         Weekend       3.57  2014-09-28 03:34:30
##  2 2014  9     30    Tue         Weekday       1.00  2014-09-30 01:00:51
##  3 2014  10    1     Wed         Weekday       2.12  2014-10-01 02:07:23
##  4 2014  10    2     Thu         Weekday       1.40  2014-10-02 01:24:34
##  5 2014  10    3     Fri         Weekday       0.400 2014-10-03 00:24:24
##  6 2014  10    5     Sun         Weekend       1.65  2014-10-05 01:39:23
##  7 2014  10    6     Mon         Weekday      23.6   2014-10-06 23:37:14
##  8 2014  10    8     Wed         Weekday       0.700 2014-10-08 00:42:22
##  9 2014  10    8     Wed         Weekday      23.6   2014-10-08 23:37:56
## 10 2014  10    10    Fri         Weekday       0.433 2014-10-10 00:26:28
## # ... with 1,260 more rows, and 5 more variables: End <dttm>,
## #   sleep_quality <dbl>, time_in_bed <time>, time_hr <dbl>, steps <int>
…
